{
    "lib": {
        "www": {
            "id": "Siza App",
            "version": "3.6.0",
            "uri": "https://github.com/phonegap/phonegap-app-hello-world/archive/3.6.0.tar.gz"
        }
    }
}